<?xml version="1.0" encoding="utf-8"?>
<!-- Generator: Adobe Illustrator 16.0.0, SVG Export Plug-In . SVG Version: 6.00 Build 0)  -->
<!DOCTYPE svg PUBLIC "-//W3C//DTD SVG 1.1//EN" "http://www.w3.org/Graphics/SVG/1.1/DTD/svg11.dtd">
<svg version="1.1" id="Layer_1" xmlns="http://www.w3.org/2000/svg" xmlns:xlink="http://www.w3.org/1999/xlink" x="0px" y="0px"
	 width="960px" height="560px" viewBox="0 0 960 560" enable-background="new 0 0 960 560" xml:space="preserve">
<g>
	<path fill="#E95420" d="M330.5,452.375h7.977v18.094c-2.334,1.86-5.058,3.287-8.171,4.28c-3.113,0.994-6.313,1.492-9.598,1.492
		c-4.626,0-8.798-1.005-12.517-3.016c-3.719-2.01-6.637-4.788-8.755-8.333c-2.119-3.544-3.178-7.544-3.178-11.998
		c0-4.453,1.059-8.452,3.178-11.998c2.118-3.544,5.047-6.323,8.788-8.333c3.739-2.01,7.944-3.016,12.614-3.016
		c3.804,0,7.264,0.627,10.376,1.881c3.113,1.254,5.728,3.092,7.847,5.513l-5.318,5.188c-3.459-3.458-7.631-5.188-12.517-5.188
		c-3.2,0-6.042,0.67-8.528,2.01c-2.486,1.341-4.432,3.221-5.836,5.642c-1.406,2.422-2.108,5.188-2.108,8.301
		c0,3.027,0.702,5.75,2.108,8.171c1.404,2.422,3.35,4.324,5.836,5.707c2.486,1.384,5.307,2.075,8.463,2.075
		c3.544,0,6.658-0.778,9.339-2.335V452.375z"/>
	<path fill="#E95420" d="M379.269,475.592l-9.273-13.295c-0.389,0.044-0.973,0.065-1.751,0.065h-10.247v13.23h-8.431v-45.397h18.677
		c3.934,0,7.361,0.649,10.279,1.946s5.156,3.157,6.712,5.577c1.556,2.422,2.334,5.297,2.334,8.625c0,3.416-0.833,6.355-2.497,8.82
		c-1.665,2.464-4.053,4.303-7.167,5.513l10.441,14.916H379.269z M376.221,439.664c-1.903-1.557-4.692-2.335-8.366-2.335h-9.858
		v18.094h9.858c3.674,0,6.463-0.789,8.366-2.367c1.902-1.578,2.854-3.815,2.854-6.712
		C379.074,443.447,378.123,441.22,376.221,439.664z"/>
	<path fill="#E95420" d="M405.663,473.225c-3.719-2.01-6.637-4.799-8.755-8.366c-2.119-3.567-3.178-7.556-3.178-11.965
		c0-4.41,1.059-8.398,3.178-11.965c2.118-3.567,5.036-6.355,8.755-8.366c3.718-2.01,7.89-3.016,12.517-3.016
		c4.626,0,8.798,1.005,12.517,3.016c3.718,2.011,6.636,4.789,8.755,8.333c2.118,3.546,3.178,7.545,3.178,11.998
		c0,4.454-1.06,8.453-3.178,11.998c-2.119,3.545-5.038,6.323-8.755,8.333c-3.719,2.011-7.891,3.016-12.517,3.016
		C413.553,476.24,409.381,475.235,405.663,473.225z M426.351,466.804c2.421-1.362,4.323-3.264,5.707-5.707
		c1.383-2.442,2.076-5.177,2.076-8.204c0-3.026-0.692-5.761-2.076-8.204c-1.384-2.442-3.286-4.345-5.707-5.707
		c-2.422-1.362-5.146-2.042-8.171-2.042c-3.027,0-5.75,0.681-8.171,2.042c-2.422,1.362-4.324,3.265-5.707,5.707
		c-1.384,2.443-2.075,5.178-2.075,8.204c0,3.027,0.691,5.762,2.075,8.204c1.383,2.443,3.285,4.345,5.707,5.707
		c2.421,1.362,5.145,2.043,8.171,2.043C421.205,468.847,423.929,468.166,426.351,466.804z"/>
	<path fill="#E95420" d="M455.501,474.749c-3.265-0.994-5.848-2.312-7.75-3.956l2.918-6.55c1.858,1.47,4.14,2.67,6.842,3.599
		c2.701,0.93,5.415,1.395,8.139,1.395c3.373,0,5.891-0.54,7.556-1.622c1.664-1.08,2.497-2.507,2.497-4.28
		c0-1.297-0.465-2.367-1.394-3.21c-0.931-0.843-2.108-1.502-3.535-1.978c-1.427-0.475-3.373-1.015-5.837-1.621
		c-3.459-0.821-6.258-1.643-8.398-2.465c-2.14-0.821-3.978-2.107-5.512-3.858c-1.535-1.751-2.302-4.118-2.302-7.102
		c0-2.507,0.681-4.788,2.043-6.842c1.362-2.053,3.415-3.686,6.161-4.896c2.745-1.21,6.106-1.816,10.085-1.816
		c2.766,0,5.49,0.347,8.171,1.038c2.68,0.692,4.994,1.687,6.939,2.983l-2.659,6.55c-1.989-1.167-4.064-2.053-6.226-2.659
		c-2.163-0.605-4.259-0.908-6.291-0.908c-3.33,0-5.804,0.562-7.426,1.686c-1.621,1.125-2.432,2.616-2.432,4.475
		c0,1.297,0.464,2.357,1.395,3.178c0.929,0.822,2.108,1.471,3.535,1.946c1.427,0.476,3.372,1.016,5.836,1.621
		c3.373,0.778,6.139,1.589,8.301,2.432c2.161,0.843,4.01,2.13,5.545,3.859c1.534,1.729,2.302,4.064,2.302,7.004
		c0,2.508-0.681,4.778-2.043,6.81c-1.362,2.033-3.427,3.654-6.193,4.864c-2.768,1.21-6.14,1.816-10.117,1.816
		C462.149,476.24,458.766,475.743,455.501,474.749z"/>
	<path fill="#E95420" d="M496.293,474.749c-3.265-0.994-5.848-2.312-7.75-3.956l2.918-6.55c1.858,1.47,4.14,2.67,6.842,3.599
		c2.701,0.93,5.415,1.395,8.139,1.395c3.373,0,5.891-0.54,7.556-1.622c1.664-1.08,2.497-2.507,2.497-4.28
		c0-1.297-0.465-2.367-1.394-3.21c-0.931-0.843-2.108-1.502-3.535-1.978c-1.427-0.475-3.373-1.015-5.837-1.621
		c-3.459-0.821-6.258-1.643-8.398-2.465c-2.14-0.821-3.978-2.107-5.512-3.858c-1.535-1.751-2.302-4.118-2.302-7.102
		c0-2.507,0.681-4.788,2.043-6.842c1.362-2.053,3.415-3.686,6.161-4.896c2.745-1.21,6.106-1.816,10.085-1.816
		c2.766,0,5.49,0.347,8.171,1.038c2.68,0.692,4.994,1.687,6.939,2.983l-2.659,6.55c-1.989-1.167-4.064-2.053-6.226-2.659
		c-2.163-0.605-4.259-0.908-6.291-0.908c-3.33,0-5.804,0.562-7.426,1.686c-1.621,1.125-2.432,2.616-2.432,4.475
		c0,1.297,0.464,2.357,1.395,3.178c0.929,0.822,2.108,1.471,3.535,1.946c1.427,0.476,3.372,1.016,5.836,1.621
		c3.373,0.778,6.139,1.589,8.301,2.432c2.161,0.843,4.01,2.13,5.545,3.859c1.534,1.729,2.302,4.064,2.302,7.004
		c0,2.508-0.681,4.778-2.043,6.81c-1.362,2.033-3.427,3.654-6.193,4.864c-2.768,1.21-6.14,1.816-10.117,1.816
		C502.941,476.24,499.558,475.743,496.293,474.749z"/>
	<path fill="#E95420" d="M533.162,430.195h8.431v45.397h-8.431V430.195z"/>
	<path fill="#E95420" d="M562.28,437.264v13.813h21.92v7.134h-21.92v17.38h-8.431v-45.397h33.14v7.069H562.28z"/>
	<path fill="#E95420" d="M614.745,459.573v16.019h-8.431v-15.889l-17.834-29.508h9.014l13.295,22.115l13.424-22.115h8.301
		L614.745,459.573z"/>
</g>
<rect x="342.594" y="356.156" fill="#E95420" width="258.975" height="2.921"/>
<g>
	<path fill="#E95420" d="M674.274,171.585c-0.017,0.284-0.045,0.556-0.091,0.84c-0.014,0.165-0.028,0.331-0.06,0.51l-29.157,55.428
		l-39.956,75.943c-0.12,0.197-1.757,2.57-4.581,4.883c-2.838,2.313-6.863,4.581-11.806,4.581H433.877
		c-0.568-0.014-12.676-0.359-17.422-11.278l-91.597-174.169h-5.859c0,0-63.102,0.181-71.964-14.014h70.447l-3.397-6.459h-4.159
		c0,0-83.125,0.18-94.811-14.015h91.702l-0.031-0.405c-0.134-1.697,0.031-3.831,0.63-6.07h-8.831c0,0-108.18,0.181-123.38-13.999
		H324c0.51-0.09,1.007-0.18,1.549-0.24l0.345-0.016H575.15v0.405c4.929,8.337,0.722,32.506-23.717,31.845l-188.499-0.03
		c-1.261,0-7.193,0.407-8.229,8.142l86.189,164.45c0.542,0.81,2.778,3.5,5.243,3.634l128.158-0.016c0-0.014,5.708-0.63,7.239-4.266
		l30.238-57.409l15.186-28.841c0.032-1.953-0.433-8.201-7.87-9.268l-114.324,0.106l-0.242-0.046
		c-0.525-0.074-13.083-2.058-19.886-11.206c-3.785-5.091-5.032-11.311-3.68-18.491l0.465-2.478l175.806-0.06l0.285,0.044
		c0,0,0.029,0,0.103,0.016C664.12,150.84,675.686,156.908,674.274,171.585z"/>
	<path fill="#E95420" d="M464.825,318.263c-10.87,0-19.681,8.808-19.681,19.678c0,10.868,8.811,19.675,19.681,19.675
		c10.867,0,19.672-8.808,19.672-19.675C484.497,327.071,475.692,318.263,464.825,318.263z"/>
	<path fill="#E95420" d="M531.03,318.263c-10.868,0-19.676,8.808-19.676,19.678c0,10.868,8.808,19.675,19.676,19.675
		c10.87,0,19.675-8.808,19.675-19.675C550.706,327.071,541.9,318.263,531.03,318.263z"/>
</g>
</svg>
